type={
	type="eagle"
	use_animation=yes
	scale=0.300000
	time_duration=300.000000
	object={
		name="Eagle_Alps"
		hidden_on_start=no
		position={
			2920.000 15.350 1416.000 
		}
		rotation={
			0.000 45.000 0.000 
		}
	}
	object={
		name="Eagle_Alps"
		hidden_on_start=no
		position={
			2927.000 12.400 1749.000 
		}
		rotation={
			0.000 45.000 0.000 
		}
	}
}
type={
	type="windmill"
	use_animation=yes
	scale=0.300000
	time_duration=300.000000
	object={
		name="French_windmill"
		hidden_on_start=no
		position={
			2771.000 0.100 1530.000 
		}
		rotation={
			0.000 -15.000 0.000 
		}
	}
	object={
		name="French_windmill"
		hidden_on_start=no
		position={
			2784.000 0.100 1508.000 
		}
		rotation={
			0.000 -15.000 0.000 
		}
	}
	object={
		name="French_windmill"
		hidden_on_start=no
		position={
			2861.000 0.100 1468.000 
		}
		rotation={
			0.000 -15.000 0.000 
		}
	}
	object={
		name="French_windmill"
		hidden_on_start=no
		position={
			2853.000 0.100 1531.000 
		}
		rotation={
			0.000 -15.000 0.000 
		}
	}
	object={
		name="French_windmill"
		hidden_on_start=no
		position={
			3095.000 0.100 1659.000 
		}
		rotation={
			0.000 -15.000 0.000 
		}
	}
	object={
		name="French_windmill"
		hidden_on_start=no
		position={
			2881.000 0.100 1561.000 
		}
		rotation={
			0.000 -15.000 0.000 
		}
	}
	object={
		name="French_windmill"
		hidden_on_start=no
		position={
			2893.000 0.100 1542.000 
		}
		rotation={
			0.000 -15.000 0.000 
		}
	}
}
type={
	type="seagulls"
	use_animation=yes
	scale=0.300000
	time_duration=300.000000
	object={
		name="Seagulls_zansibar"
		hidden_on_start=no
		position={
			3124.000 11.000 62.000 
		}
		rotation={
			0.000 45.000 0.000 
		}
	}
	object={
		name="Seagulls_zambia"
		hidden_on_start=no
		position={
			3002.000 11.000 475.000 
		}
		rotation={
			0.000 45.000 0.000 
		}
	}
	object={
		name="Seagulls_zansibar"
		hidden_on_start=no
		position={
			3464.000 11.000 453.000 
		}
		rotation={
			0.000 45.000 0.000 
		}
	}
	object={
		name="Seagulls_zansibar"
		hidden_on_start=no
		position={
			4663.000 11.000 507.000 
		}
		rotation={
			0.000 45.000 0.000 
		}
	}
	object={
		name="INFANTRY"
		hidden_on_start=no
		position={
			5073.000 11.000 53.000 
		}
		rotation={
			0.000 45.000 0.000 
		}
	}
	object={
		name="INFANTRY"
		hidden_on_start=no
		position={
			5540.000 11.000 131.000 
		}
		rotation={
			0.000 45.000 0.000 
		}
	}
	object={
		name="Seagulls_sierra_leon"
		hidden_on_start=no
		position={
			2577.000 11.000 786.000 
		}
		rotation={
			0.000 45.000 0.000 
		}
	}
	object={
		name="Seagulls_West_africa"
		hidden_on_start=no
		position={
			2860.000 11.000 731.000 
		}
		rotation={
			0.000 45.000 0.000 
		}
	}
	object={
		name="Seagulls_kongo"
		hidden_on_start=no
		position={
			2945.400 11.000 599.930 
		}
		rotation={
			0.000 45.000 0.000 
		}
	}
	object={
		name="INFANTRY"
		hidden_on_start=no
		position={
			3319.000 11.000 631.000 
		}
		rotation={
			0.000 45.000 0.000 
		}
	}
	object={
		name="Seagulls_Ethiopia"
		hidden_on_start=no
		position={
			3514.000 11.000 840.000 
		}
		rotation={
			0.000 45.000 0.000 
		}
	}
	object={
		name="Seagulls_srilanka"
		hidden_on_start=no
		position={
			4043.810 11.000 784.800 
		}
		rotation={
			0.000 45.000 0.000 
		}
	}
	object={
		name="Seagulls_west_india"
		hidden_on_start=no
		position={
			3920.000 11.000 953.000 
		}
		rotation={
			0.000 45.000 0.000 
		}
	}
	object={
		name="Seagulls_ganges_delta"
		hidden_on_start=no
		position={
			4209.000 11.000 986.000 
		}
		rotation={
			0.000 45.000 0.000 
		}
	}
	object={
		name="Seagulls_zansibar"
		hidden_on_start=no
		position={
			4321.000 11.000 887.000 
		}
		rotation={
			0.000 45.000 0.000 
		}
	}
	object={
		name="Seagulls_zansibar"
		hidden_on_start=no
		position={
			4437.000 11.000 649.000 
		}
		rotation={
			0.000 45.000 0.000 
		}
	}
	object={
		name="Seagulls_zansibar"
		hidden_on_start=no
		position={
			4747.000 11.000 799.000 
		}
		rotation={
			0.000 45.000 0.000 
		}
	}
	object={
		name="Seagulls_vietnam_delta"
		hidden_on_start=no
		position={
			4473.000 11.000 801.000 
		}
		rotation={
			0.000 45.000 0.000 
		}
	}
	object={
		name="Seagulls_north_vietnam"
		hidden_on_start=no
		position={
			4486.000 11.000 976.000 
		}
		rotation={
			0.000 45.000 0.000 
		}
	}
	object={
		name="Seagulls_english_channel"
		hidden_on_start=no
		position={
			897.000 11.000 1503.000 
		}
		rotation={
			0.000 45.000 0.000 
		}
	}
	object={
		name="Seagulls_english_channel"
		hidden_on_start=no
		position={
			2807.000 11.000 1534.000 
		}
		rotation={
			0.000 45.000 0.000 
		}
	}
	object={
		name="INFANTRY"
		hidden_on_start=no
		position={
			2763.000 11.000 1432.000 
		}
		rotation={
			0.000 45.000 0.000 
		}
	}
	object={
		name="Seagulls_Canarian_islands"
		hidden_on_start=no
		position={
			2574.000 11.000 1112.000 
		}
		rotation={
			0.000 45.000 0.000 
		}
	}
	object={
		name="Seagulls_Gibraltar"
		hidden_on_start=no
		position={
			2700.000 11.000 1242.000 
		}
		rotation={
			0.000 45.000 0.000 
		}
	}
	object={
		name="Seagulls_Venice"
		hidden_on_start=no
		position={
			3014.000 11.000 1413.000 
		}
		rotation={
			0.000 45.000 0.000 
		}
	}
	object={
		name="Seagulls_Cyperus"
		hidden_on_start=no
		position={
			3348.000 11.000 1204.000 
		}
		rotation={
			0.000 45.000 0.000 
		}
	}
	object={
		name="INFANTRY"
		hidden_on_start=no
		position={
			3584.000 11.000 1121.000 
		}
		rotation={
			0.000 45.000 0.000 
		}
	}
	object={
		name="Seagulls_zansibar"
		hidden_on_start=no
		position={
			5012.000 11.000 1263.000 
		}
		rotation={
			0.000 45.000 0.000 
		}
	}
	object={
		name="Seagulls_taiwan"
		hidden_on_start=no
		position={
			4678.000 11.000 1062.000 
		}
		rotation={
			0.000 45.000 0.000 
		}
	}
	object={
		name="Seagulls_South_korea"
		hidden_on_start=no
		position={
			4825.000 11.000 1214.000 
		}
		rotation={
			0.000 45.000 0.000 
		}
	}
	object={
		name="Seagulls_Japan"
		hidden_on_start=no
		position={
			4954.000 11.000 1211.000 
		}
		rotation={
			0.000 45.000 0.000 
		}
	}
	object={
		name="INFANTRY"
		hidden_on_start=no
		position={
			2612.000 10.900 1553.000 
		}
		rotation={
			0.000 45.000 0.000 
		}
	}
	object={
		name="Seagulls_Aland"
		hidden_on_start=no
		position={
			3071.000 10.800 1672.000 
		}
		rotation={
			0.000 45.000 0.000 
		}
	}
	object={
		name="Seagulls_baltic"
		hidden_on_start=no
		position={
			3110.000 11.000 1639.000 
		}
		rotation={
			0.000 45.000 0.000 
		}
	}
	object={
		name="Seagulls_Neatherlands"
		hidden_on_start=no
		position={
			2838.000 11.000 1553.000 
		}
		rotation={
			0.000 45.000 0.000 
		}
	}
}
type={
	type="black_bear"
	use_animation=yes
	scale=0.200000
	time_duration=300.000000
	object={
		name="Seagulls_english_channel"
		hidden_on_start=no
		position={
			885.000 0.100 1796.000 
		}
		rotation={
			0.000 45.000 0.000 
		}
	}
	object={
		name="Seagulls_english_channel"
		hidden_on_start=no
		position={
			597.000 0.150 2005.000 
		}
		rotation={
			0.000 -60.000 0.000 
		}
	}
	object={
		name="Seagulls_english_channel"
		hidden_on_start=no
		position={
			316.000 0.100 1977.000 
		}
		rotation={
			0.000 -60.000 0.000 
		}
	}
	object={
		name="Seagulls_english_channel"
		hidden_on_start=no
		position={
			1051.000 0.400 1729.000 
		}
		rotation={
			0.000 -60.000 0.000 
		}
	}
	object={
		name="Seagulls_english_channel"
		hidden_on_start=no
		position={
			1113.000 0.100 1860.000 
		}
		rotation={
			0.000 -60.000 0.000 
		}
	}
	object={
		name="Seagulls_english_channel"
		hidden_on_start=no
		position={
			844.000 0.100 1738.000 
		}
		rotation={
			0.000 45.000 0.000 
		}
	}
	object={
		name="Seagulls_english_channel"
		hidden_on_start=no
		position={
			3098.000 0.400 1656.000 
		}
		rotation={
			0.000 -60.000 0.000 
		}
	}
}
type={
	type="polar_bear"
	use_animation=yes
	scale=0.300000
	time_duration=300.000000
	object={
		name="Seagulls_english_channel"
		hidden_on_start=no
		position={
			2291.000 0.100 2031.000 
		}
		rotation={
			0.000 30.000 0.000 
		}
	}
	object={
		name="Seagulls_english_channel"
		hidden_on_start=no
		position={
			2000.000 0.100 1957.000 
		}
		rotation={
			0.000 -60.000 0.000 
		}
	}
}
type={
	type="brown_bear"
	use_animation=yes
	scale=0.200000
	time_duration=300.000000
	object={
		name="Seagulls_english_channel"
		hidden_on_start=no
		position={
			3091.000 0.250 1657.000 
		}
		rotation={
			0.000 -60.000 0.000 
		}
	}
	object={
		name="Seagulls_english_channel"
		hidden_on_start=no
		position={
			3371.930 0.250 1712.790 
		}
		rotation={
			0.000 -60.000 0.000 
		}
	}
	object={
		name="Seagulls_english_channel"
		hidden_on_start=no
		position={
			3371.930 0.250 1712.790 
		}
		rotation={
			0.000 -60.000 0.000 
		}
	}
	object={
		name="Seagulls_english_channel"
		hidden_on_start=no
		position={
			3555.000 0.250 1658.000 
		}
		rotation={
			0.000 -60.000 0.000 
		}
	}
	object={
		name="Seagulls_english_channel"
		hidden_on_start=no
		position={
			3432.000 0.250 1604.000 
		}
		rotation={
			0.000 -60.000 0.000 
		}
	}
	object={
		name="Seagulls_english_channel"
		hidden_on_start=no
		position={
			3199.000 0.100 1803.000 
		}
		rotation={
			0.000 60.000 0.000 
		}
	}
	object={
		name="Seagulls_english_channel"
		hidden_on_start=no
		position={
			3234.000 0.100 1915.000 
		}
		rotation={
			0.000 60.000 0.000 
		}
	}
	object={
		name="Seagulls_english_channel"
		hidden_on_start=no
		position={
			3107.000 0.100 1881.000 
		}
		rotation={
			0.000 -60.000 0.000 
		}
	}
	object={
		name="Seagulls_english_channel"
		hidden_on_start=no
		position={
			3024.000 0.250 1747.000 
		}
		rotation={
			0.000 -60.000 0.000 
		}
	}
}
type={
	type="panda_bear"
	use_animation=yes
	scale=0.200000
	time_duration=300.000000
	object={
		name="Seagulls_english_channel"
		hidden_on_start=no
		position={
			4647.000 0.100 1149.000 
		}
		rotation={
			0.000 -60.000 0.000 
		}
	}
	object={
		name="Seagulls_english_channel"
		hidden_on_start=no
		position={
			4517.000 0.100 1136.000 
		}
		rotation={
			0.000 -60.000 0.000 
		}
	}
	object={
		name="Seagulls_english_channel"
		hidden_on_start=no
		position={
			4864.000 0.200 1543.000 
		}
		rotation={
			0.000 -60.000 0.000 
		}
	}
	object={
		name="Seagulls_english_channel"
		hidden_on_start=no
		position={
			4729.000 0.100 1542.000 
		}
		rotation={
			0.000 -40.000 0.000 
		}
	}
}
type={
	type="kangaroo"
	use_animation=yes
	scale=0.200000
	time_duration=300.000000
	object={
		name="Seagulls_english_channel"
		hidden_on_start=no
		position={
			5046.000 0.200 220.000 
		}
		rotation={
			0.000 60.000 0.000 
		}
	}
	object={
		name="Seagulls_english_channel"
		hidden_on_start=no
		position={
			4706.000 0.100 158.000 
		}
		rotation={
			0.000 -60.000 0.000 
		}
	}
	object={
		name="Seagulls_english_channel"
		hidden_on_start=no
		position={
			4689.000 0.100 278.000 
		}
		rotation={
			0.000 80.000 0.000 
		}
	}
	object={
		name="Seagulls_english_channel"
		hidden_on_start=no
		position={
			4996.000 0.100 148.000 
		}
		rotation={
			0.000 -40.000 0.000 
		}
	}
	object={
		name="Seagulls_english_channel"
		hidden_on_start=no
		position={
			5094.000 0.100 302.000 
		}
		rotation={
			0.000 -40.000 0.000 
		}
	}
	object={
		name="Seagulls_english_channel"
		hidden_on_start=no
		position={
			4950.000 0.100 277.000 
		}
		rotation={
			0.000 60.000 0.000 
		}
	}
}
type={
	type="crocodile"
	use_animation=yes
	scale=0.250000
	time_duration=300.000000
	object={
		name="Seagulls_english_channel"
		hidden_on_start=no
		position={
			1844.000 0.200 1008.000 
		}
		rotation={
			0.000 -75.000 0.000 
		}
	}
	object={
		name="Seagulls_english_channel"
		hidden_on_start=no
		position={
			1969.000 0.100 842.000 
		}
		rotation={
			0.000 40.000 0.000 
		}
	}
	object={
		name="Seagulls_english_channel"
		hidden_on_start=no
		position={
			2807.000 0.100 777.000 
		}
		rotation={
			0.000 50.000 0.000 
		}
	}
	object={
		name="Seagulls_english_channel"
		hidden_on_start=no
		position={
			2617.000 0.100 805.000 
		}
		rotation={
			0.000 50.000 0.000 
		}
	}
	object={
		name="Seagulls_english_channel"
		hidden_on_start=no
		position={
			3336.000 0.100 931.000 
		}
		rotation={
			0.000 -60.000 0.000 
		}
	}
	object={
		name="Seagulls_english_channel"
		hidden_on_start=no
		position={
			3321.000 0.300 617.000 
		}
		rotation={
			0.000 50.000 0.000 
		}
	}
	object={
		name="Seagulls_english_channel"
		hidden_on_start=no
		position={
			2935.000 0.100 732.000 
		}
		rotation={
			0.000 50.000 0.000 
		}
	}
	object={
		name="Seagulls_english_channel"
		hidden_on_start=no
		position={
			3035.000 0.100 576.000 
		}
		rotation={
			0.000 50.000 0.000 
		}
	}
	object={
		name="Seagulls_english_channel"
		hidden_on_start=no
		position={
			3283.000 0.100 981.000 
		}
		rotation={
			0.000 -60.000 0.000 
		}
	}
	object={
		name="Seagulls_english_channel"
		hidden_on_start=no
		position={
			1385.000 0.100 1368.000 
		}
		rotation={
			0.000 -45.000 0.000 
		}
	}
	object={
		name="Seagulls_english_channel"
		hidden_on_start=no
		position={
			1341.000 0.100 1367.000 
		}
		rotation={
			0.000 30.000 0.000 
		}
	}
	object={
		name="Seagulls_english_channel"
		hidden_on_start=no
		position={
			1267.000 0.100 1225.000 
		}
		rotation={
			0.000 30.000 0.000 
		}
	}
	object={
		name="Seagulls_english_channel"
		hidden_on_start=no
		position={
			1529.000 0.250 1312.000 
		}
		rotation={
			0.000 -60.000 0.000 
		}
	}
	object={
		name="Seagulls_english_channel"
		hidden_on_start=no
		position={
			1476.000 0.100 1367.000 
		}
		rotation={
			0.000 40.000 0.000 
		}
	}
	object={
		name="Seagulls_english_channel"
		hidden_on_start=no
		position={
			1434.000 0.100 1412.000 
		}
		rotation={
			0.000 45.000 0.000 
		}
	}
	object={
		name="Seagulls_english_channel"
		hidden_on_start=no
		position={
			3083.000 0.100 1217.000 
		}
		rotation={
			0.000 -60.000 0.000 
		}
	}
	object={
		name="Seagulls_english_channel"
		hidden_on_start=no
		position={
			3074.000 0.100 1668.000 
		}
		rotation={
			0.000 -60.000 0.000 
		}
	}
}
type={
	type="zebra"
	use_animation=yes
	scale=0.200000
	time_duration=300.000000
	object={
		name="Seagulls_english_channel"
		hidden_on_start=no
		position={
			3390.000 0.200 459.000 
		}
		rotation={
			0.000 60.000 0.000 
		}
	}
	object={
		name="Seagulls_english_channel"
		hidden_on_start=no
		position={
			3334.000 0.400 390.000 
		}
		rotation={
			0.000 60.000 0.000 
		}
	}
	object={
		name="Seagulls_english_channel"
		hidden_on_start=no
		position={
			3338.000 0.100 393.000 
		}
		rotation={
			0.000 -40.000 0.000 
		}
	}
	object={
		name="Seagulls_english_channel"
		hidden_on_start=no
		position={
			3341.000 0.150 392.000 
		}
		rotation={
			0.000 -60.000 0.000 
		}
	}
	object={
		name="Seagulls_english_channel"
		hidden_on_start=no
		position={
			3284.000 0.100 792.000 
		}
		rotation={
			0.000 -60.000 0.000 
		}
	}
	object={
		name="Seagulls_english_channel"
		hidden_on_start=no
		position={
			3322.000 0.100 687.000 
		}
		rotation={
			0.000 -60.000 0.000 
		}
	}
	object={
		name="Seagulls_english_channel"
		hidden_on_start=no
		position={
			3236.000 0.150 548.000 
		}
		rotation={
			0.000 -60.000 0.000 
		}
	}
}
type={
	type="seal"
	use_animation=yes
	scale=0.250000
	time_duration=300.000000
	object={
		name="Seagulls_english_channel"
		hidden_on_start=no
		position={
			1765.000 0.100 28.000 
		}
		rotation={
			0.000 40.000 0.000 
		}
	}
	object={
		name="Seagulls_english_channel"
		hidden_on_start=no
		position={
			1684.000 0.100 76.000 
		}
		rotation={
			0.000 -40.000 0.000 
		}
	}
	object={
		name="Seagulls_english_channel"
		hidden_on_start=no
		position={
			1682.000 0.100 177.000 
		}
		rotation={
			0.000 -60.000 0.000 
		}
	}
	object={
		name="Seagulls_english_channel"
		hidden_on_start=no
		position={
			3143.000 0.100 81.000 
		}
		rotation={
			0.000 40.000 0.000 
		}
	}
	object={
		name="Seagulls_english_channel"
		hidden_on_start=no
		position={
			826.000 0.100 1733.000 
		}
		rotation={
			0.000 -60.000 0.000 
		}
	}
	object={
		name="Seagulls_english_channel"
		hidden_on_start=no
		position={
			789.000 0.100 1807.000 
		}
		rotation={
			0.000 -30.000 0.000 
		}
	}
	object={
		name="Seagulls_english_channel"
		hidden_on_start=no
		position={
			697.000 0.100 1910.000 
		}
		rotation={
			0.000 40.000 0.000 
		}
	}
	object={
		name="Seagulls_english_channel"
		hidden_on_start=no
		position={
			496.000 0.100 1962.000 
		}
		rotation={
			0.000 40.000 0.000 
		}
	}
	object={
		name="Seagulls_english_channel"
		hidden_on_start=no
		position={
			222.000 0.100 1954.000 
		}
		rotation={
			0.000 -60.000 0.000 
		}
	}
	object={
		name="Seagulls_english_channel"
		hidden_on_start=no
		position={
			2119.000 0.100 1842.000 
		}
		rotation={
			0.000 -60.000 0.000 
		}
	}
	object={
		name="Seagulls_english_channel"
		hidden_on_start=no
		position={
			2158.000 0.100 1918.000 
		}
		rotation={
			0.000 40.000 0.000 
		}
	}
	object={
		name="Seagulls_english_channel"
		hidden_on_start=no
		position={
			2427.000 0.100 1911.000 
		}
		rotation={
			0.000 -40.000 0.000 
		}
	}
	object={
		name="Seagulls_english_channel"
		hidden_on_start=no
		position={
			2594.000 0.100 1903.000 
		}
		rotation={
			0.000 50.000 0.000 
		}
	}
	object={
		name="Seagulls_english_channel"
		hidden_on_start=no
		position={
			2710.000 0.100 1696.000 
		}
		rotation={
			0.000 50.000 0.000 
		}
	}
	object={
		name="Seagulls_english_channel"
		hidden_on_start=no
		position={
			2890.000 0.100 1727.000 
		}
		rotation={
			0.000 -60.000 0.000 
		}
	}
	object={
		name="Seagulls_english_channel"
		hidden_on_start=no
		position={
			2897.000 0.100 1792.000 
		}
		rotation={
			0.000 -60.000 0.000 
		}
	}
	object={
		name="Seagulls_english_channel"
		hidden_on_start=no
		position={
			3090.000 0.100 1669.000 
		}
		rotation={
			0.000 -130.000 0.000 
		}
	}
	object={
		name="Seagulls_english_channel"
		hidden_on_start=no
		position={
			3324.000 0.100 1980.000 
		}
		rotation={
			0.000 50.000 0.000 
		}
	}
}
type={
	type="whale"
	use_animation=yes
	scale=0.800000
	time_duration=300.000000
	object={
		name="Seagulls_english_channel"
		hidden_on_start=no
		position={
			533.000 0.100 1862.000 
		}
		rotation={
			0.000 0.000 0.000 
		}
	}
	object={
		name="Seagulls_english_channel"
		hidden_on_start=no
		position={
			706.000 0.100 1664.000 
		}
		rotation={
			0.000 0.000 0.000 
		}
	}
	object={
		name="Seagulls_english_channel"
		hidden_on_start=no
		position={
			2622.000 0.100 1678.000 
		}
		rotation={
			0.000 0.000 0.000 
		}
	}
	object={
		name="Seagulls_english_channel"
		hidden_on_start=no
		position={
			2703.000 0.100 1930.000 
		}
		rotation={
			0.000 0.000 0.000 
		}
	}
	object={
		name="Seagulls_english_channel"
		hidden_on_start=no
		position={
			2271.000 0.100 1877.000 
		}
		rotation={
			0.000 0.000 0.000 
		}
	}
	object={
		name="Seagulls_english_channel"
		hidden_on_start=no
		position={
			2091.000 0.100 1734.000 
		}
		rotation={
			0.000 0.000 0.000 
		}
	}
	object={
		name="Seagulls_english_channel"
		hidden_on_start=no
		position={
			1838.000 0.100 1546.000 
		}
		rotation={
			0.000 0.000 0.000 
		}
	}
	object={
		name="Seagulls_english_channel"
		hidden_on_start=no
		position={
			2906.000 0.100 1961.000 
		}
		rotation={
			0.000 45.000 0.000 
		}
	}
	object={
		name="Seagulls_english_channel"
		hidden_on_start=no
		position={
			5121.000 0.100 1610.000 
		}
		rotation={
			0.000 0.000 0.000 
		}
	}
	object={
		name="Seagulls_english_channel"
		hidden_on_start=no
		position={
			5413.000 0.100 1548.000 
		}
		rotation={
			0.000 0.000 0.000 
		}
	}
}
type={
	type="vulture"
	use_animation=yes
	scale=0.300000
	time_duration=300.000000
	object={
		name="Seagulls_english_channel"
		hidden_on_start=no
		position={
			1747.000 9.300 153.000 
		}
		rotation={
			0.000 45.000 0.000 
		}
	}
	object={
		name="Seagulls_english_channel"
		hidden_on_start=no
		position={
			3144.000 5.000 147.000 
		}
		rotation={
			0.000 45.000 0.000 
		}
	}
	object={
		name="Seagulls_english_channel"
		hidden_on_start=no
		position={
			3116.000 4.050 307.000 
		}
		rotation={
			0.000 45.000 0.000 
		}
	}
	object={
		name="Seagulls_english_channel"
		hidden_on_start=no
		position={
			2743.000 9.600 970.000 
		}
		rotation={
			0.000 45.000 0.000 
		}
	}
	object={
		name="Seagulls_english_channel"
		hidden_on_start=no
		position={
			3629.000 10.400 983.000 
		}
		rotation={
			0.000 45.000 0.000 
		}
	}
	object={
		name="Seagulls_english_channel"
		hidden_on_start=no
		position={
			3339.000 8.750 1021.000 
		}
		rotation={
			0.000 45.000 0.000 
		}
	}
	object={
		name="Seagulls_english_channel"
		hidden_on_start=no
		position={
			2999.000 8.800 967.000 
		}
		rotation={
			0.000 45.000 0.000 
		}
	}
	object={
		name="Seagulls_english_channel"
		hidden_on_start=no
		position={
			3201.000 5.400 900.000 
		}
		rotation={
			0.000 45.000 0.000 
		}
	}
	object={
		name="Seagulls_english_channel"
		hidden_on_start=no
		position={
			3489.000 8.100 749.000 
		}
		rotation={
			0.000 45.000 0.000 
		}
	}
	object={
		name="Seagulls_english_channel"
		hidden_on_start=no
		position={
			1031.000 9.550 1407.000 
		}
		rotation={
			0.000 45.000 0.000 
		}
	}
	object={
		name="Seagulls_english_channel"
		hidden_on_start=no
		position={
			1171.000 4.300 1427.000 
		}
		rotation={
			0.000 45.000 0.000 
		}
	}
	object={
		name="Seagulls_english_channel"
		hidden_on_start=no
		position={
			2639.000 9.700 1102.000 
		}
		rotation={
			0.000 45.000 0.000 
		}
	}
	object={
		name="Seagulls_english_channel"
		hidden_on_start=no
		position={
			3514.000 8.850 1112.000 
		}
		rotation={
			0.000 45.000 0.000 
		}
	}
	object={
		name="Seagulls_english_channel"
		hidden_on_start=no
		position={
			3734.000 9.000 1095.000 
		}
		rotation={
			0.000 45.000 0.000 
		}
	}
	object={
		name="Seagulls_english_channel"
		hidden_on_start=no
		position={
			3804.000 6.550 1170.000 
		}
		rotation={
			0.000 45.000 0.000 
		}
	}
	object={
		name="Seagulls_english_channel"
		hidden_on_start=no
		position={
			3148.000 10.400 1163.000 
		}
		rotation={
			0.000 45.000 0.000 
		}
	}
	object={
		name="Seagulls_english_channel"
		hidden_on_start=no
		position={
			2944.000 9.850 1188.000 
		}
		rotation={
			0.000 45.000 0.000 
		}
	}
	object={
		name="Seagulls_english_channel"
		hidden_on_start=no
		position={
			3693.000 10.100 1344.000 
		}
		rotation={
			0.000 45.000 0.000 
		}
	}
	object={
		name="Seagulls_english_channel"
		hidden_on_start=no
		position={
			4095.000 5.050 1291.000 
		}
		rotation={
			0.000 45.000 0.000 
		}
	}
	object={
		name="Seagulls_english_channel"
		hidden_on_start=no
		position={
			4373.000 5.150 1369.000 
		}
		rotation={
			0.000 45.000 0.000 
		}
	}
	object={
		name="Seagulls_english_channel"
		hidden_on_start=no
		position={
			4248.000 3.650 1468.000 
		}
		rotation={
			0.000 45.000 0.000 
		}
	}
	object={
		name="Seagulls_english_channel"
		hidden_on_start=no
		position={
			4503.000 5.600 1404.000 
		}
		rotation={
			0.000 45.000 0.000 
		}
	}
	object={
		name="Seagulls_english_channel"
		hidden_on_start=no
		position={
			950.000 2.350 1538.000 
		}
		rotation={
			0.000 45.000 0.000 
		}
	}
	object={
		name="Seagulls_english_channel"
		hidden_on_start=no
		position={
			3139.000 2.350 1680.000 
		}
		rotation={
			0.000 45.000 0.000 
		}
	}
}
type={
	type="guanaco"
	use_animation=yes
	scale=0.200000
	time_duration=300.000000
	object={
		name="Seagulls_english_channel"
		hidden_on_start=no
		position={
			1717.000 0.100 268.000 
		}
		rotation={
			0.000 0.000 0.000 
		}
	}
	object={
		name="Seagulls_english_channel"
		hidden_on_start=no
		position={
			1783.000 0.200 303.000 
		}
		rotation={
			0.000 0.000 0.000 
		}
	}
	object={
		name="Seagulls_english_channel"
		hidden_on_start=no
		position={
			1769.000 0.300 384.000 
		}
		rotation={
			0.000 0.000 0.000 
		}
	}
	object={
		name="Seagulls_english_channel"
		hidden_on_start=no
		position={
			1774.000 0.400 448.000 
		}
		rotation={
			0.000 0.000 0.000 
		}
	}
	object={
		name="Seagulls_english_channel"
		hidden_on_start=no
		position={
			1745.000 0.100 539.000 
		}
		rotation={
			0.000 0.000 0.000 
		}
	}
	object={
		name="Seagulls_english_channel"
		hidden_on_start=no
		position={
			1615.000 0.550 705.000 
		}
		rotation={
			0.000 0.000 0.000 
		}
	}
}
type={
	type="elephant_AO"
	use_animation=yes
	scale=0.200000
	time_duration=300.000000
	object={
		name="Seagulls_english_channel"
		hidden_on_start=no
		position={
			3997.000 0.200 944.000 
		}
		rotation={
			0.000 -60.000 0.000 
		}
	}
	object={
		name="Seagulls_english_channel"
		hidden_on_start=no
		position={
			4082.000 0.200 992.000 
		}
		rotation={
			0.000 40.000 0.000 
		}
	}
	object={
		name="Seagulls_english_channel"
		hidden_on_start=no
		position={
			3978.000 0.200 1017.000 
		}
		rotation={
			0.000 60.000 0.000 
		}
	}
	object={
		name="Seagulls_english_channel"
		hidden_on_start=no
		position={
			3331.000 0.200 620.000 
		}
		rotation={
			0.000 -60.000 0.000 
		}
	}
	object={
		name="Seagulls_english_channel"
		hidden_on_start=no
		position={
			3253.000 0.100 570.000 
		}
		rotation={
			0.000 -60.000 0.000 
		}
	}
	object={
		name="Seagulls_english_channel"
		hidden_on_start=no
		position={
			3373.000 0.200 713.000 
		}
		rotation={
			0.000 -60.000 0.000 
		}
	}
	object={
		name="Seagulls_english_channel"
		hidden_on_start=no
		position={
			4364.000 0.200 956.000 
		}
		rotation={
			0.000 60.000 0.000 
		}
	}
	object={
		name="Seagulls_english_channel"
		hidden_on_start=no
		position={
			4468.000 0.200 886.000 
		}
		rotation={
			0.000 60.000 0.000 
		}
	}
	object={
		name="Seagulls_english_channel"
		hidden_on_start=no
		position={
			4476.000 0.200 827.000 
		}
		rotation={
			0.000 60.000 0.000 
		}
	}
	object={
		name="Seagulls_english_channel"
		hidden_on_start=no
		position={
			4066.000 0.200 1116.000 
		}
		rotation={
			0.000 60.000 0.000 
		}
	}
	object={
		name="Seagulls_english_channel"
		hidden_on_start=no
		position={
			4241.000 0.200 1061.000 
		}
		rotation={
			0.000 60.000 0.000 
		}
	}
}
type={
	type="elephant_indian"
	use_animation=yes
	scale=0.200000
	time_duration=300.000000
	object={
		name="Seagulls_english_channel"
		hidden_on_start=no
		position={
			4020.000 0.100 952.000 
		}
		rotation={
			0.000 -60.000 0.000 
		}
	}
	object={
		name="Seagulls_english_channel"
		hidden_on_start=no
		position={
			4107.000 0.600 989.000 
		}
		rotation={
			0.000 -60.000 0.000 
		}
	}
	object={
		name="Seagulls_english_channel"
		hidden_on_start=no
		position={
			4051.000 0.100 911.000 
		}
		rotation={
			0.000 -60.000 0.000 
		}
	}
}
type={
	type="pyramids"
	use_animation=no
	scale=0.600000
	time_duration=300.000000
	object={
		name="Seagulls_english_channel"
		hidden_on_start=no
		position={
			3136.000 0.100 1128.000 
		}
		rotation={
			0.000 0.000 0.000 
		}
	}
	object={
		name="Seagulls_english_channel"
		hidden_on_start=no
		position={
			3095.000 0.100 1664.000 
		}
		rotation={
			0.000 0.000 0.000 
		}
	}
}
type={
	type="camel"
	use_animation=yes
	scale=0.250000
	time_duration=300.000000
	object={
		name="Seagulls_english_channel"
		hidden_on_start=no
		position={
			3587.000 0.100 1043.000 
		}
		rotation={
			0.000 45.000 0.000 
		}
	}
	object={
		name="Seagulls_english_channel"
		hidden_on_start=no
		position={
			3099.000 0.100 1139.000 
		}
		rotation={
			0.000 45.000 0.000 
		}
	}
	object={
		name="Seagulls_english_channel"
		hidden_on_start=no
		position={
			3076.000 0.100 1660.000 
		}
		rotation={
			0.000 45.000 0.000 
		}
	}
}
type={
	type="bison"
	use_animation=yes
	scale=0.200000
	time_duration=300.000000
	object={
		name="Seagulls_english_channel"
		hidden_on_start=no
		position={
			1237.000 0.100 1527.000 
		}
		rotation={
			0.000 45.000 0.000 
		}
	}
	object={
		name="Seagulls_english_channel"
		hidden_on_start=no
		position={
			1245.000 0.100 1530.000 
		}
		rotation={
			0.000 -30.000 0.000 
		}
	}
	object={
		name="Seagulls_english_channel"
		hidden_on_start=no
		position={
			1249.000 0.150 1528.000 
		}
		rotation={
			0.000 -60.000 0.000 
		}
	}
	object={
		name="Seagulls_english_channel"
		hidden_on_start=no
		position={
			1232.000 0.550 1429.000 
		}
		rotation={
			0.000 45.000 0.000 
		}
	}
	object={
		name="Seagulls_english_channel"
		hidden_on_start=no
		position={
			3084.000 0.100 1666.000 
		}
		rotation={
			0.000 -30.000 0.000 
		}
	}
}
type={
	type="moose"
	use_animation=yes
	scale=0.280000
	time_duration=300.000000
	object={
		name="Seagulls_english_channel"
		hidden_on_start=no
		position={
			3382.000 0.100 1524.000 
		}
		rotation={
			0.000 45.000 0.000 
		}
	}
	object={
		name="Seagulls_english_channel"
		hidden_on_start=no
		position={
			3315.000 0.100 1672.000 
		}
		rotation={
			0.000 45.000 0.000 
		}
	}
	object={
		name="Seagulls_english_channel"
		hidden_on_start=no
		position={
			3091.000 0.100 1661.000 
		}
		rotation={
			0.000 45.000 0.000 
		}
	}
	object={
		name="Seagulls_english_channel"
		hidden_on_start=no
		position={
			3075.000 0.100 1731.000 
		}
		rotation={
			0.000 64.000 0.000 
		}
	}
}
type={
	type="giraffe"
	use_animation=yes
	scale=0.300000
	time_duration=300.000000
	object={
		name="Seagulls_english_channel"
		hidden_on_start=no
		position={
			3328.000 0.100 737.000 
		}
		rotation={
			0.000 -60.000 0.000 
		}
	}
	object={
		name="Seagulls_english_channel"
		hidden_on_start=no
		position={
			3197.000 0.100 559.000 
		}
		rotation={
			0.000 80.000 0.000 
		}
	}
}
type={
	type="desert_skeleton_mesh"
	use_animation=no
	scale=0.400000
	time_duration=300.000000
	object={
		name="Seagulls_english_channel"
		hidden_on_start=no
		position={
			1764.000 0.100 272.000 
		}
		rotation={
			0.000 50.000 0.000 
		}
	}
	object={
		name="Seagulls_english_channel"
		hidden_on_start=no
		position={
			3654.000 0.100 981.000 
		}
		rotation={
			0.000 50.000 0.000 
		}
	}
	object={
		name="Seagulls_english_channel"
		hidden_on_start=no
		position={
			3584.000 0.100 934.000 
		}
		rotation={
			0.000 50.000 0.000 
		}
	}
	object={
		name="Seagulls_english_channel"
		hidden_on_start=no
		position={
			1198.000 0.100 1391.000 
		}
		rotation={
			0.000 50.000 0.000 
		}
	}
	object={
		name="Seagulls_english_channel"
		hidden_on_start=no
		position={
			1078.000 0.100 1369.000 
		}
		rotation={
			0.000 50.000 0.000 
		}
	}
	object={
		name="Seagulls_english_channel"
		hidden_on_start=no
		position={
			1012.000 0.100 1436.000 
		}
		rotation={
			0.000 50.000 0.000 
		}
	}
	object={
		name="Seagulls_english_channel"
		hidden_on_start=no
		position={
			3436.000 0.100 1158.000 
		}
		rotation={
			0.000 50.000 0.000 
		}
	}
}
type={
	type="frame_top_left_entity"
	use_animation=no
	always_visible=yes
	object={
		name="frame_top_left_entity01"
		hidden_on_start=no
		position={
			412.000 18.000 2046.000 
		}
		rotation={
			0.000 0.000 0.000 
		}
	}
	object={
		name="frame_top_left_entity01"
		hidden_on_start=no
		position={
			-100.000 18.000 2046.000 
		}
		rotation={
			0.000 0.000 0.000 
		}
	}
	object={
		name="frame_top_left_entity03"
		hidden_on_start=no
		position={
			1436.000 18.000 2046.000 
		}
		rotation={
			0.000 0.000 0.000 
		}
	}
	object={
		name="frame_top_left_entity05"
		hidden_on_start=no
		position={
			3484.000 18.000 2046.000 
		}
		rotation={
			0.000 0.000 0.000 
		}
	}
	object={
		name="frame_top_left_entity99"
		hidden_on_start=no
		position={
			5532.000 18.000 2046.000 
		}
		rotation={
			0.000 0.000 0.000 
		}
	}
	object={
		name="frame_top_left_entity07"
		hidden_on_start=no
		position={
			4508.000 18.000 2046.000 
		}
		rotation={
			0.000 0.000 0.000 
		}
	}
}
type={
	type="frame_top_right_entity"
	use_animation=no
	always_visible=yes
	object={
		name="frame_top_left_entity02"
		hidden_on_start=no
		position={
			924.000 18.000 2046.000 
		}
		rotation={
			0.000 0.000 0.000 
		}
	}
	object={
		name="frame_top_left_entity06"
		hidden_on_start=no
		position={
			3996.000 18.000 2046.000 
		}
		rotation={
			0.000 0.000 0.000 
		}
	}
	object={
		name="frame_top_left_entity"
		hidden_on_start=no
		position={
			5020.000 18.000 2046.000 
		}
		rotation={
			0.000 0.000 0.000 
		}
	}
}
type={
	type="frame_bottom_left_entity"
	use_animation=no
	always_visible=yes
	object={
		name="frame_top_left_entity"
		hidden_on_start=no
		position={
			0.000 18.000 1.000 
		}
		rotation={
			0.000 0.000 0.000 
		}
	}
	object={
		name="frame_top_left_entity"
		hidden_on_start=no
		position={
			1024.000 18.000 1.000 
		}
		rotation={
			0.000 0.000 0.000 
		}
	}
	object={
		name="frame_top_left_entity"
		hidden_on_start=no
		position={
			512.000 18.000 1.000 
		}
		rotation={
			0.000 0.000 0.000 
		}
	}
	object={
		name="frame_top_left_entity"
		hidden_on_start=no
		position={
			4096.000 18.000 1.000 
		}
		rotation={
			0.000 0.000 0.000 
		}
	}
	object={
		name="frame_top_left_entity"
		hidden_on_start=no
		position={
			3584.000 18.000 1.000 
		}
		rotation={
			0.000 0.000 0.000 
		}
	}
	object={
		name="frame_top_left_entity"
		hidden_on_start=no
		position={
			4608.000 18.000 1.000 
		}
		rotation={
			0.000 0.000 0.000 
		}
	}
}
type={
	type="frame_bottom_right_entity"
	use_animation=no
	always_visible=yes
	object={
		name="frame_top_left_entity"
		hidden_on_start=no
		position={
			2048.000 18.000 1.000 
		}
		rotation={
			0.000 0.000 0.000 
		}
	}
	object={
		name="frame_top_left_entity"
		hidden_on_start=no
		position={
			2560.000 18.000 1.000 
		}
		rotation={
			0.000 0.000 0.000 
		}
	}
	object={
		name="frame_top_left_entity"
		hidden_on_start=no
		position={
			1536.000 18.000 1.000 
		}
		rotation={
			0.000 0.000 0.000 
		}
	}
	object={
		name="frame_top_left_entity"
		hidden_on_start=no
		position={
			3072.000 18.000 1.000 
		}
		rotation={
			0.000 0.000 0.000 
		}
	}
	object={
		name="frame_top_left_entity"
		hidden_on_start=no
		position={
			5120.000 18.000 1.000 
		}
		rotation={
			0.000 0.000 0.000 
		}
	}
}
type={
	type="frame_top_center_entity"
	use_animation=no
	always_visible=yes
	object={
		name="frame_top_left_entity05"
		hidden_on_start=no
		position={
			1948.000 18.000 2046.000 
		}
		rotation={
			0.000 0.000 0.000 
		}
	}
}
type={
	type="nammi_angkor_wat_entity"
	use_animation=no
	scale=0.570000
	time_duration=300.000000
	object={
		name="angkor_wat"
		hidden_on_start=no
		position={
			4428.600 0.150 869.000 
		}
		rotation={
			0.000 -103.000 0.000 
		}
	}
}
type={
	type="nammi_cologne_cathedral_entity"
	use_animation=no
	scale=0.730000
	time_duration=300.000000
	object={
		name="cologne"
		hidden_on_start=no
		position={
			3080.000 0.350 1663.000 
		}
		rotation={
			0.000 -90.000 0.000 
		}
	}
	object={
		name="cologne"
		hidden_on_start=no
		position={
			2908.300 0.350 1537.500 
		}
		rotation={
			0.000 -90.000 0.000 
		}
	}
}
type={
	type="nammi_kremlin_entity"
	use_animation=no
	scale=0.520000
	time_duration=300.000000
	object={
		name="kremlin"
		hidden_on_start=no
		position={
			3085.000 -0.150 1659.000 
		}
		rotation={
			0.000 5.000 0.000 
		}
	}
	object={
		name="kremlin"
		hidden_on_start=no
		position={
			3399.000 -0.150 1647.000 
		}
		rotation={
			0.000 5.000 0.000 
		}
	}
}
type={
	type="nammi_mount_fuji_entity"
	use_animation=no
	scale=0.900000
	time_duration=300.000000
	object={
		name="mount_fuji"
		hidden_on_start=no
		position={
			4971.000 -1.100 1247.000 
		}
		rotation={
			0.000 -110.000 0.000 
		}
	}
	object={
		name="mount_fuji"
		hidden_on_start=no
		position={
			3107.000 -1.100 1687.000 
		}
		rotation={
			0.000 -110.000 0.000 
		}
	}
}
type={
	type="nammi_notre_dame_cathedral_entity"
	use_animation=no
	scale=0.580000
	time_duration=300.000000
	object={
		name="notre_dame"
		hidden_on_start=no
		position={
			2807.000 0.200 1536.000 
		}
		rotation={
			0.000 20.000 0.000 
		}
	}
	object={
		name="notre_dame"
		hidden_on_start=no
		position={
			3089.000 0.200 1665.000 
		}
		rotation={
			0.000 20.000 0.000 
		}
	}
}
type={
	type="nammi_old_faithful_geyser_entity"
	use_animation=no
	scale=0.150000
	time_duration=300.000000
	object={
		name="old_faithful"
		hidden_on_start=no
		position={
			1082.500 0.010 1630.000 
		}
		rotation={
			0.000 -60.000 0.000 
		}
	}
}
type={
	type="nammi_stpeters_cathedral_entity"
	use_animation=no
	scale=0.500000
	time_duration=300.000000
	object={
		name="stpeters"
		hidden_on_start=no
		position={
			2811.000 0.260 1536.000 
		}
		rotation={
			0.000 70.000 0.000 
		}
	}
	object={
		name="stpeters"
		hidden_on_start=no
		position={
			3078.000 0.260 1658.000 
		}
		rotation={
			0.000 70.000 0.000 
		}
	}
}
type={
	type="nammi_tower_of_london_entity"
	use_animation=no
	scale=0.300000
	time_duration=300.000000
	object={
		name="tower_of_london"
		hidden_on_start=no
		position={
			2927.000 0.200 1511.000 
		}
		rotation={
			0.000 13.000 0.000 
		}
	}
	object={
		name="tower_of_london"
		hidden_on_start=no
		position={
			2744.000 0.200 1613.000 
		}
		rotation={
			0.000 13.000 0.000 
		}
	}
	object={
		name="tower_of_london"
		hidden_on_start=no
		position={
			3072.000 0.200 1546.000 
		}
		rotation={
			0.000 13.000 0.000 
		}
	}
	object={
		name="tower_of_london"
		hidden_on_start=no
		position={
			2985.000 0.200 1711.000 
		}
		rotation={
			0.000 13.000 0.000 
		}
	}
	object={
		name="tower_of_london"
		hidden_on_start=no
		position={
			3079.000 0.200 1792.000 
		}
		rotation={
			0.000 13.000 0.000 
		}
	}
	object={
		name="tower_of_london"
		hidden_on_start=no
		position={
			2841.000 0.200 1667.000 
		}
		rotation={
			0.000 13.000 0.000 
		}
	}
	object={
		name="tower_of_london"
		hidden_on_start=no
		position={
			2900.000 0.200 1607.000 
		}
		rotation={
			0.000 13.000 0.000 
		}
	}
}
type={
	type="nammi2_chichen_itza_entity"
	use_animation=no
	scale=0.340000
	time_duration=300.000000
	object={
		name="chichen_itza"
		hidden_on_start=no
		position={
			1424.000 -0.050 1208.000 
		}
		rotation={
			0.000 -103.000 0.000 
		}
	}
}
type={
	type="nammi2_hagia_sophia_entity"
	use_animation=no
	scale=0.260000
	time_duration=300.000000
	object={
		name="hagia_sophia"
		hidden_on_start=no
		position={
			3206.000 0.150 1385.000 
		}
		rotation={
			0.000 -30.000 0.000 
		}
	}
}
type={
	type="nammi2_hagia_sophia_minarets_entity"
	use_animation=no
	scale=0.260000
	time_duration=300.000000
	object={
		name="hagia_sophia_minarets"
		hidden_on_start=yes
		position={
			3241.000 0.150 1344.000 
		}
		rotation={
			0.000 -30.000 0.000 
		}
	}
}
type={
	type="nammi2_machu_picchu_entity"
	use_animation=no
	scale=0.180000
	time_duration=300.000000
	object={
		name="machu_picchu"
		hidden_on_start=no
		position={
			1661.000 -0.200 649.000 
		}
		rotation={
			0.000 85.000 0.000 
		}
	}
	object={
		name="machu_picchu"
		hidden_on_start=no
		position={
			3081.000 -0.200 1688.000 
		}
		rotation={
			0.000 85.000 0.000 
		}
	}
}
type={
	type="nammi2_parthenon_entity"
	use_animation=no
	scale=0.290000
	time_duration=300.000000
	object={
		name="parthenon"
		hidden_on_start=no
		position={
			3080.000 0.000 1374.000 
		}
		rotation={
			0.000 55.000 0.000 
		}
	}
}
type={
	type="nammi2_petra_entity"
	use_animation=no
	scale=0.150000
	time_duration=300.000000
	object={
		name="petra"
		hidden_on_start=no
		position={
			3378.000 0.000 1236.000 
		}
		rotation={
			0.000 -30.000 0.000 
		}
	}
}
type={
	type="nammi2_tenochtitlan_entity"
	use_animation=no
	scale=0.100000
	time_duration=300.000000
	object={
		name="tenochtitlan"
		hidden_on_start=no
		position={
			1260.000 0.300 1184.000 
		}
		rotation={
			0.000 0.000 0.000 
		}
	}
	object={
		name="tenochtitlan"
		hidden_on_start=no
		position={
			3080.000 0.300 1670.000 
		}
		rotation={
			0.000 0.000 0.000 
		}
	}
}
type={
	type="nammi2_buddha_statues_big_entity"
	use_animation=no
	scale=0.190000
	time_duration=300.000000
	object={
		name="buddha_big"
		hidden_on_start=no
		position={
			3835.000 -1.000 1198.000 
		}
		rotation={
			0.000 25.000 0.000 
		}
	}
}
type={
	type="nammi2_buddha_statues_small_entity"
	use_animation=no
	scale=0.120000
	time_duration=300.000000
	object={
		name="buddha_small"
		hidden_on_start=no
		position={
			3839.000 -0.200 1202.000 
		}
		rotation={
			0.000 -15.000 0.000 
		}
	}
}
type={
	type="nammi2_stonehenge_entity"
	use_animation=no
	scale=0.180000
	time_duration=300.000000
	object={
		name="stonehenge"
		hidden_on_start=no
		position={
			2857.000 0.150 1514.000 
		}
		rotation={
			0.000 -0.800 0.000 
		}
	}
}
type={
	type="nammi2_moai_entity"
	use_animation=no
	scale=0.300000
	time_duration=300.000000
	object={
		name="moai"
		hidden_on_start=no
		position={
			1053.000 0.150 314.000 
		}
		rotation={
			0.000 -12.000 0.000 
		}
	}
}
type={
	type="nammi2_forbidden_city_entity"
	use_animation=no
	scale=0.350000
	time_duration=300.000000
	object={
		name="forbidden_city"
		hidden_on_start=no
		position={
			4565.000 -0.020 1334.000 
		}
		rotation={
			0.000 -30.000 0.000 
		}
	}
}
type={
	type="nammi2_himeji_castle_entity"
	use_animation=no
	scale=0.290000
	time_duration=300.000000
	object={
		name="himeji_castle"
		hidden_on_start=no
		position={
			4908.200 -0.300 1234.400 
		}
		rotation={
			0.000 -25.000 0.000 
		}
	}
}
type={
	type="kiel_canal"
	use_animation=no
	time_duration=300.000000
	always_visible=yes
	visible_in_all_map_modes=yes
	object={
		name="kiel_canal"
		hidden_on_start=yes
		position={
			2952.800 -0.100 1609.000 
		}
		rotation={
			0.000 -75.000 0.000 
		}
	}
}
type={
	type="suez_canal"
	use_animation=no
	scale=0.800000
	time_duration=300.000000
	always_visible=yes
	visible_in_all_map_modes=yes
	object={
		name="suez_canal"
		hidden_on_start=yes
		position={
			3315.000 0.100 1149.000 
		}
		rotation={
			0.000 2.000 0.000 
		}
	}
}
type={
	type="panama_canal"
	use_animation=no
	scale=1.500000
	time_duration=300.000000
	always_visible=yes
	visible_in_all_map_modes=yes
	object={
		name="panama_canal"
		hidden_on_start=yes
		position={
			1565.800 0.000 1016.500 
		}
		rotation={
			0.000 25.000 0.000 
		}
	}
}
