# Anbennar
# Commented out references to discovering Antarctica

########################################
# Events for Innovativeness
#
# written by Henrik Lohmander and Daniel Tolman
########################################

namespace = innovativeness_events
normal_or_historical_nations = yes

# Scripted Effects:
# add_innovativeness_small_effect / reduce_innovativeness_small_effect (1)
# add_innovativeness_big_effect / reduce_innovativeness_big_effect (3)

#1 Decreases
#0 Increases

# Freedom of the Press
country_event = {
	id = innovativeness_events.1
	title = "innovativeness_events.1.t"
	desc = "innovativeness_events.1.d"
	picture = PRINTING_PRESS_eventPicture
	
	trigger = {
		has_dlc = "Rule Britannia"
		has_institution = printing_press
		innovativeness = 5
		NOT = {
			has_country_modifier = critical_press
		}
	}
	
	is_triggered_only = yes
	
	mean_time_to_happen = {
		days = 1
	}
	
	option = {
		name = "innovativeness_events.1.a" #Forbid the Publication
		ai_chance = {
			factor = 25
		}
		reduce_innovativeness_small_effect = yes
	}
	option = {
		name = "innovativeness_events.1.b" #It is just a piece of paper.
		ai_chance = {
			factor = 75
		}
		add_country_modifier = {
			name = "critical_press"
			duration = 3650
		}
	}
}

# The inventions of [Root.adm_advisor.GetName]
country_event = {
	id = innovativeness_events.2
	title = "innovativeness_events.2.t"
	desc = "innovativeness_events.2.d"
	picture = SCIENTISTS_eventPicture
	
	trigger = {
		has_dlc = "Rule Britannia"
		has_advisor = natural_scientist
		adm_tech = 4
		has_institution = renaissance
		OR = {
			natural_scientist = 3
			AND = {
				natural_scientist = 2
				adm_tech = 7
			}
			adm_tech = 14
		}
	}
	
	is_triggered_only = yes
	
	
	mean_time_to_happen = {
		days = 1
	}
	
	option = {
		name = "innovativeness_events.2.a" #
		ai_chance = {
			factor = 55
		}
		add_years_of_income = -0.75
		add_adm_power = -50
		add_innovativeness_small_effect = yes
	}
	option = {
		name = "innovativeness_events.2.b"
		ai_chance = {
			factor = 45
		}
		remove_advisor_by_category = ADM
		add_prestige = -5
	}
}

# Anatomical Theatre
country_event = {
	id = innovativeness_events.3
	title = "innovativeness_events.3.t"
	desc = "innovativeness_events.3.d"
	picture = ROYAL_SOCIETY_eventPicture
	
	trigger = {
		has_dlc = "Rule Britannia"
		any_owned_province = {
			is_state = yes
			is_capital = no
			#continent = CAPITAL
			NOT = {
				has_province_modifier = unpopular_dissections
			}
		}
	}
	
	is_triggered_only = yes
	
	immediate = {
		hidden_effect = {
			random_owned_province = {
				limit = {
					is_state = yes
					is_capital = no
					#continent = CAPITAL
					NOT = {
						has_province_modifier = unpopular_dissections
					}
				}
				save_event_target_as = doctor_province
			}
		}
	}
	
	mean_time_to_happen = {
		days = 1
		modifier = {
			factor = 3
			religion_group = christian
		}
	}
	
	option = {
		name = "innovativeness_events.3.a" #
		ai_chance = {
			factor = 20
		}
		reduce_innovativeness_small_effect = yes
	}
	option = {
		name = "innovativeness_events.3.b"
		ai_chance = {
			factor = 40
		}
		event_target:doctor_province = {
			area = {
				limit = { owned_by = ROOT }
				add_province_modifier = {
					name = "unpopular_dissections"
					duration = 1825
				}
			}
		}
	}
	option = {
		name = "innovativeness_events.3.c"
		ai_chance = {
			factor = 40
		}
		add_innovativeness_small_effect = yes
		add_prestige = -10
		event_target:doctor_province = {
			area = {
				limit = { owned_by = ROOT }
				add_province_modifier = {
					name = "unpopular_dissections"
					duration = 3650
				}
			}
		}
	}
}

# Promising Inventor
country_event = {
	id = innovativeness_events.4
	title = "innovativeness_events.4.t"
	desc = "innovativeness_events.4.d"
	picture = SCIENTISTS_eventPicture
	
	trigger = {
		has_dlc = "Rule Britannia"
		any_neighbor_country = {
			OR = {
				adm_tech = ROOT
				dip_tech = ROOT
				mil_tech = ROOT
			}
			num_of_cities = ROOT
		}
	}
	
	is_triggered_only = yes
	
	immediate = {
		hidden_effect = {
			random_neighbor_country = {
				limit = {
					OR = {
						adm_tech = ROOT
						dip_tech = ROOT
						mil_tech = ROOT
					}
					num_of_cities = ROOT
				}
				save_event_target_as = inventor_country
			}
			set_saved_name = {
				key = inventor
				type = advisor
				scope = event_target:inventor_country
			}
		}
	}
	
	mean_time_to_happen = {
		days = 1
	}
	
	option = {
		name = "innovativeness_events.4.a" #
		ai_chance = {
			factor = 40
		}
		add_innovativeness_small_effect = yes
		event_target:inventor_country = {
			add_opinion = {
				who = ROOT
				modifier = harbored_inventor
			}
			every_ally = {
				limit = { NOT = { tag = ROOT } }
				add_opinion = {
					who = ROOT
					modifier = harbored_inventor
				}
			}
		}
	}
	option = {
		name = "innovativeness_events.4.b"
		ai_chance = {
			factor = 60
		}
		add_prestige = 10
		event_target:inventor_country = {
			add_opinion = {
				who = ROOT
				modifier = turned_away_inventor
			}
		}
	}
	after = {
		clear_saved_name = inventor
	}
}


# Education for the Poor?
country_event = {
	id = innovativeness_events.5
	title = "innovativeness_events.5.t"
	desc = "innovativeness_events.5.d"
	picture = ROYAL_SOCIETY_eventPicture
	
	trigger = {
		has_dlc = "Rule Britannia"
		any_owned_province = {
			NOT = { development = 12 }
			is_capital = no
			#continent = CAPITAL
		}
	}
	
	is_triggered_only = yes
	
	immediate = {
		hidden_effect = {
			random_owned_province = {
				limit = {
					NOT = { development = 12 }
					is_capital = no
					#continent = CAPITAL
				}
				save_event_target_as = poor_province
			}
		}
	}
	
	mean_time_to_happen = {
		days = 1
	}
	
	option = {
		name = "innovativeness_events.5.a" #
		ai_chance = {
			factor = 40
		}
		add_innovativeness_small_effect = yes
		if = {
			limit = { has_estate = estate_church }
			add_estate_influence_modifier = {
				estate = estate_church
				desc = EST_VAL_PUBLIC_SCHOOLS
				influence = 10
				duration = 3650
			}
		}
		event_target:poor_province = {
			add_province_modifier = {
				name = "public_schools"
				duration = 10950
			}
		}
	}
	option = {
		name = "innovativeness_events.5.b"
		ai_chance = {
			factor = 60
		}
		reduce_estate_church_loyalty_effect = yes
		add_prestige = -5
	}
}

# [Root.GetRoyalOrState] Patronage
country_event = {
	id = innovativeness_events.6
	title = "innovativeness_events.6.t"
	desc = "innovativeness_events.6.d"
	picture = SCIENTISTS_eventPicture
	
	trigger = {
		has_dlc = "Rule Britannia"
		innovativeness = 10
		has_institution = renaissance
	}
	
	is_triggered_only = yes
	
	immediate = {
		hidden_effect = {
			
		}
	}
	
	mean_time_to_happen = {
		days = 1
	}
	
	option = {
		name = "innovativeness_events.6.a" #They shall have our endorsement.
		ai_chance = {
			factor = 60
		}
		add_innovativeness_big_effect = yes
		add_adm_power = -35
		add_years_of_income = -0.7
		add_country_modifier = {
			name = "new_royal_society"
			duration = 5475
		}
	}
	option = {
		name = "innovativeness_events.6.b" #What a waste of time!
		ai_chance = {
			factor = 40
		}
		add_prestige = -5
	}
}

# Academy of [university_province.GetName]
country_event = {
	id = innovativeness_events.7
	title = "innovativeness_events.7.t"
	desc = "innovativeness_events.7.d"
	picture = UNIVERSITY_eventPicture
	
	trigger = {
		has_dlc = "Rule Britannia"
		innovativeness = 10
		has_institution = printing_press
		any_owned_province = {
			printing_press = 100
			has_owner_culture = yes
			OR = {
				has_building = university
				development = 15
				is_capital = yes
			}
		}
	}
	
	is_triggered_only = yes
	
	immediate = {
		hidden_effect = {
			random_owned_province = {
				limit = {
					printing_press = 100
					has_owner_culture = yes
					OR = {
						has_building = university
						development = 15
						is_capital = yes
					}
				}
				save_event_target_as = university_province
			}
		}
	}
	
	mean_time_to_happen = {
		days = 1
	}
	
	option = {
		name = "innovativeness_events.7.a" #Enlarge the University? Sounds like a good idea.
		ai_chance = {
			factor = 60
		}
		add_innovativeness_big_effect = yes
		add_years_of_income = -0.5
		add_adm_power = -25
	}
	option = {
		name = "innovativeness_events.7.b" #Let us listen to the conservatives.
		ai_chance = {
			factor = 40
		}
		add_stability_or_adm_power = yes
	}
}

# Dissenting Academies
country_event = {
	id = innovativeness_events.8
	title = "innovativeness_events.8.t"
	desc = "innovativeness_events.8.d"
	picture = PRINTING_PRESS_eventPicture
	
	is_triggered_only = yes
	
	trigger = {
		has_dlc = "Rule Britannia"
		innovativeness = 10
		religion_group = christian
		num_of_owned_provinces_with = {
			religion_group = ROOT
			NOT = { religion = ROOT }
			is_state = yes
			value = 5
		}
		NOT = {
			has_country_modifier = dissenting_academies
		}
	}
	
	mean_time_to_happen = {
		days = 1
	}
	
	option = {
		name = "innovativeness_events.8.a" # let them continue teaching
		add_innovativeness_small_effect = yes
		add_country_modifier = {
			name = "dissenting_academies"
			duration = 3650
		}
	}
	option = {
		name = "innovativeness_events.8.b" # enforce religious unity
		reduce_innovativeness_small_effect = yes
	}
}

# Treatise on Natural Philosophy
country_event = {
	id = innovativeness_events.9
	title = "innovativeness_events.9.t"
	desc = "innovativeness_events.9.d"
	picture = SCIENTISTS_eventPicture
	
	is_triggered_only = yes
	
	trigger = {
		has_dlc = "Rule Britannia"
		innovativeness = 10
		NOT = {
			has_country_modifier = "religion_mocked"
			has_country_modifier = "blasphemous_scientist_punished"
		}
	}
	mean_time_to_happen = {
		days = 1
	}
	immediate = {
		hidden_effect = {
			set_saved_name = {
				key = scientist
				type = advisor
				scope = ROOT
			}
		}
	}
	# lose clergy loyalty
	option = {
		name = "innovativeness_events.9.a"
		add_innovativeness_small_effect = yes
		reduce_estate_church_loyalty_effect = yes
		add_country_modifier = {
			name = "religion_mocked"
			duration = 3650
		}
		
	}
	option = {
		name = "innovativeness_events.9.b"
		add_estate_church_loyalty_effect = yes
		add_country_modifier = { # tolerance own
			name = "blasphemous_scientist_punished"
			duration = 3650
		}
	}
	after = {
		clear_saved_name = scientist
	}
	
}

# Unpopular Mathematician
country_event = {
	id = innovativeness_events.10
	title = "innovativeness_events.10.t"
	desc = "innovativeness_events.10.d"
	picture = SCIENTISTS_eventPicture
	
	is_triggered_only = yes
	
	trigger = {
		has_dlc = "Rule Britannia"
		innovativeness = 10
	}

	mean_time_to_happen = {
		days = 1
	}
	immediate = {
		hidden_effect = {
			set_saved_name = {
				key = mathematician
				type = advisor
				scope = ROOT
			}
		}
	}
	option = {
		name = "innovativeness_events.10.a"
		add_innovativeness_small_effect = yes
		add_prestige = -20
	}
	option = {
		name = "innovativeness_events.10.b"
		add_prestige = 10
		increase_legitimacy_small_effect = yes
	}
	after = {
		clear_saved_name = mathematician
	}
}

#AnbennarDependencies - commented references to Antarctica areas

# Terra Australis
# Early attempts to discover Antarctica
country_event = {
	id = innovativeness_events.11
	title = "innovativeness_events.11.t"
	desc = "innovativeness_events.11.d"
	picture = CHAMBER_OF_CURIOSITIES_eventPicture
	
	is_triggered_only = yes
	
	trigger = {
		has_dlc = "Rule Britannia"
		innovativeness = 10
		full_idea_group = exploration_ideas
		adm_tech = 23 # map the world
		dip_tech = 23
		# OR = {
			# has_discovered = argentine_sea_area
			# has_discovered = tasman_sea_area
			# has_discovered = cape_of_storms_area
		# }
	}
	mean_time_to_happen = {
		days = 1
	}
	option = {
		name = "innovativeness_events.11.a"
		add_years_of_income = -0.75
		add_innovativeness_small_effect = yes
	}
	option = {
		name = "innovativeness_events.11.b"
		add_prestige = -5
	}
}

# Coffee Houses
country_event = {
	id = innovativeness_events.12
	title = "innovativeness_events.12.t"
	desc = "innovativeness_events.12.d"
	picture = ROYAL_SOCIETY_eventPicture
	
	is_triggered_only = yes
	
	trigger = {
		has_dlc = "Rule Britannia"
		innovativeness = 10
		has_institution = manufactories
		any_country = {
			capital_scope = {
				continent = ROOT
			}
			OR = {
				any_owned_province = {
					trade_goods = coffee
				}
				any_subject_country = {
					is_colonial_nation = yes
					any_owned_province = {
						trade_goods = coffee
					}
				}
			}
		}
	}
	mean_time_to_happen = {
		days = 1
	}
	option = { # encourage them
		name = "innovativeness_events.12.a"
		add_innovativeness_small_effect = yes
		add_country_modifier = {
			name = "coffee_houses"
			duration = 3650
		}
	}
	option = { # dangerous ideas
		name = "innovativeness_events.12.b"
		add_country_modifier = {
			name = "coffee_houses_banned"
			duration = 3650
		}
	}
}

# New Scientific Instruments
country_event = {
	id = innovativeness_events.13
	title = "innovativeness_events.13.t"
	desc = "innovativeness_events.13.d"
	picture = SCIENTISTS_eventPicture
	
	is_triggered_only = yes
	
	trigger = {
		has_dlc = "Rule Britannia"
		innovativeness = 10
		has_institution = renaissance
	}
	mean_time_to_happen = {
		days = 1
	}
	# purely positive?
	option = {
		name = "innovativeness_events.13.a"
		add_innovativeness_small_effect = yes
	}
}

# Physiocrats
# Weirdo agrarian gentry
country_event = {
	id = innovativeness_events.14
	title = "innovativeness_events.14.t"
	desc = "innovativeness_events.14.d"
	picture = INDUSTRIALIZATION_eventPictures
	
	is_triggered_only = yes
	
	trigger = {
		has_dlc = "Rule Britannia"
		innovativeness = 10
		has_institution = enlightenment
	}
	mean_time_to_happen = {
		days = 1
	}
	option = { # adopt their ideas
		name = "innovativeness_events.14.a"
		add_innovativeness_big_effect = yes
		if = {
			limit = {
				has_estate = estate_nobles
			}
			add_estate_influence_modifier = {
				estate = estate_nobles
				desc = PHYSIOCRACY
				influence = 10
				duration = 3650
			}
			add_mercantilism = -2
		}
		else = {
			add_mercantilism = -4
		}
	}
	option = {
		name = "innovativeness_events.14.b"
		add_mercantilism = 1
	}
}

# Cabinet of Curiosities
country_event = {
	id = innovativeness_events.15
	title = "innovativeness_events.15.t"
	desc = "innovativeness_events.15.d"
	picture = CHAMBER_OF_CURIOSITIES_eventPicture
	
	is_triggered_only = yes
	
	trigger = {
		has_dlc = "Rule Britannia"
		innovativeness = 10
		has_institution = colonialism
	}
	mean_time_to_happen = {
		days = 1
	}
	option = { # create a collection for the monarch
		name = "innovativeness_events.15.a"
		add_innovativeness_small_effect = yes
		add_treasury = -200
		add_country_modifier = {
			name = "cabinet_of_curiosities"
			duration = 3650
		}
	}
	option = { # this is silly. build a church instead
		name = "innovativeness_events.15.b"
		add_estate_church_loyalty_effect = yes
		random_owned_province = {
			limit = {
				NOT = {
					has_building = temple
				}
				NOT = {
					has_building = cathedral
				}
				num_free_building_slots = 1
			}
			add_building = temple
		}
	}
}